"OddsRatio"	"Count"	"Size"	"Pvalue"	"ModuleE$Term"
4.2	20	2300	4e-06	"catabolic process"
4.3	18	1900	5.9e-06	"cellular catabolic process"
Inf	2	2	8.8e-06	"cyanate metabolic process"
Inf	2	2	8.8e-06	"cyanate catabolic process"
3.9	19	2200	1.3e-05	"organonitrogen compound metabolic process"
4.1	17	1900	1.7e-05	"organic substance catabolic process"
4.6	12	1100	5.9e-05	"organic acid metabolic process"
21	4	73	6.7e-05	"endosome organization"
4.7	11	940	9.1e-05	"carboxylic acid metabolic process"
7.4	7	360	1e-04	"cellular amino acid metabolic process"
4.2	11	1100	0.00024	"oxoacid metabolic process"
14	4	100	0.00026	"translational termination"
5.9	7	450	0.00036	"autophagy"
4.2	10	940	0.00042	"single-organism catabolic process"
4	10	980	0.00059	"oxidation-reduction process"
8.1	5	230	0.00062	"organic acid catabolic process"
8.1	5	230	0.00062	"carboxylic acid catabolic process"
7.9	5	240	0.00068	"protein complex disassembly"
6.2	6	360	0.00072	"organonitrogen compound catabolic process"
11	4	140	0.00075	"translational elongation"
5	7	530	0.00095	"mitochondrion organization"
