"OddsRatio"	"Count"	"Size"	"Pvalue"	"ModuleE$Term"
11	50	2800	5e-23	"immune system process"
11	43	2000	5.2e-22	"immune response"
9.6	35	1500	3.8e-18	"defense response"
10	31	1200	1.5e-17	"immune effector process"
12	25	740	2e-16	"regulated exocytosis"
12	24	680	3e-16	"leukocyte activation involved in immune response"
12	24	680	3.2e-16	"cell activation involved in immune response"
11	26	850	4.9e-16	"exocytosis"
13	21	530	3.8e-15	"leukocyte degranulation"
13	21	540	4.6e-15	"myeloid cell activation involved in immune response"
12	22	610	5.4e-15	"myeloid leukocyte activation"
13	21	540	5.6e-15	"myeloid leukocyte mediated immunity"
13	20	480	9.3e-15	"neutrophil activation involved in immune response"
13	20	480	9.3e-15	"neutrophil degranulation"
13	20	490	1.1e-14	"neutrophil activation"
13	20	500	1.4e-14	"granulocyte activation"
13	20	500	1.5e-14	"neutrophil mediated immunity"
10	24	820	2.1e-14	"leukocyte mediated immunity"
7	27	1300	2.8e-12	"cell activation"
8.2	22	870	6.2e-12	"innate immune response"
6.7	27	1400	6.5e-12	"secretion by cell"
7	25	1200	9.4e-12	"leukocyte activation"
9.1	19	650	2e-11	"inflammatory response"
5	42	3700	2.4e-11	"response to stress"
6.1	27	1500	5.1e-11	"secretion"
7.3	22	970	5.6e-11	"regulation of immune response"
5.6	30	1900	5.7e-11	"vesicle-mediated transport"
6.2	26	1400	6.9e-11	"regulation of immune system process"
6.5	21	1000	8.5e-10	"positive regulation of immune system process"
7.1	15	610	3.9e-08	"activation of immune response"
3.7	37	3700	4.5e-08	"regulation of response to stimulus"
6.5	16	720	5e-08	"hemopoiesis"
4.3	27	2100	5.1e-08	"positive regulation of response to stimulus"
7.9	13	460	7.7e-08	"leukocyte differentiation"
6.2	16	750	8.7e-08	"positive regulation of immune response"
6.1	16	760	1.1e-07	"hematopoietic or lymphoid organ development"
4	26	2100	2.1e-07	"response to external stimulus"
5.8	16	800	2.2e-07	"immune system development"
3.6	57	8400	5.6e-07	"response to stimulus"
5.8	14	680	9.5e-07	"regulation of defense response"
14	7	130	1.5e-06	"acute inflammatory response"
13	7	140	2.4e-06	"complement activation"
6.6	11	450	3.5e-06	"leukocyte migration"
3.2	30	3100	4e-06	"single-organism transport"
6.9	10	390	6.3e-06	"positive regulation of cytokine production"
5.6	12	580	6.6e-06	"regulation of cytokine production"
11	7	160	6.8e-06	"protein activation cascade"
3	30	3200	1.1e-05	"single-organism localization"
4.6	14	840	1.2e-05	"response to other organism"
4.6	14	840	1.2e-05	"response to external biotic stimulus"
5.1	12	640	1.8e-05	"cytokine production"
4.4	14	880	1.9e-05	"response to biotic stimulus"
3.4	62	11000	2.5e-05	"single-organism cellular process"
2.9	26	2700	3.1e-05	"cell surface receptor signaling pathway"
2.6	38	5000	3.4e-05	"transport"
6.2	9	380	3.6e-05	"negative regulation of immune system process"
6.1	9	390	4.2e-05	"cofactor metabolic process"
5.4	10	500	4.9e-05	"defense response to other organism"
2.5	38	5100	6.3e-05	"establishment of localization"
7.6	7	240	7.4e-05	"regulation of leukocyte differentiation"
3.5	16	1300	8.8e-05	"cell migration"
6.3	8	330	8.9e-05	"myeloid cell differentiation"
12	5	110	1e-04	"granulocyte chemotaxis"
38	3	22	0.00011	"myeloid leukocyte cytokine production"
8.4	6	180	0.00014	"myeloid leukocyte differentiation"
4.3	11	680	0.00015	"regulation of response to external stimulus"
11	5	120	0.00015	"granulocyte migration"
4	12	810	0.00017	"response to cytokine"
11	5	120	0.00018	"negative regulation of immune response"
160	2	5	0.00018	"regulation of mast cell cytokine production"
4.5	10	590	0.00021	"immune response-regulating signaling pathway"
6.3	7	280	0.00022	"regulation of inflammatory response"
6.3	7	290	0.00023	"humoral immune response"
9.9	5	130	0.00024	"platelet degranulation"
15	4	71	0.00025	"regulation of acute inflammatory response"
28	3	29	0.00026	"regulation of mast cell activation involved in immune response"
28	3	29	0.00026	"regulation of mast cell degranulation"
5.3	8	390	0.00027	"regulation of innate immune response"
120	2	6	0.00027	"wound healing involved in inflammatory response"
120	2	6	0.00027	"inflammatory response to wounding"
3.1	16	1400	0.00027	"cell motility"
3.1	16	1400	0.00027	"localization of cell"
6	7	300	0.00031	"adaptive immune response based on somatic recombination of immune receptors built from immunoglobulin superfamily domains"
26	3	31	0.00031	"regulation of complement activation"
25	3	32	0.00035	"regulation of protein activation cascade"
2.3	41	6100	0.00037	"localization"
95	2	7	0.00038	"mast cell cytokine production"
95	2	7	0.00038	"recognition of apoptotic cell"
5.7	7	320	0.00041	"lymphocyte differentiation"
5.6	7	320	0.00043	"coenzyme metabolic process"
5.6	7	320	0.00048	"regulation of hemopoiesis"
2.9	17	1600	0.00049	"locomotion"
22	3	36	0.00049	"macrophage differentiation"
79	2	8	5e-04	"interleukin-23 production"
79	2	8	5e-04	"regulation of interleukin-23 production"
5.5	7	330	0.00051	"regulation of immune effector process"
4.3	9	540	0.00053	"response to bacterium"
6.5	6	240	0.00053	"reactive oxygen species metabolic process"
8.2	5	160	0.00054	"regulation of leukocyte mediated immunity"
21	3	38	0.00058	"regulation of myeloid leukocyte mediated immunity"
21	3	38	0.00058	"regulation of mast cell activation"
8.1	5	160	0.00059	"regulation of leukocyte migration"
20	3	39	0.00062	"regulation of leukocyte degranulation"
4.2	9	560	0.00062	"immune response-activating signal transduction"
4.6	8	450	0.00064	"immune response-regulating cell surface receptor signaling pathway"
68	2	9	0.00064	"regulation of dendritic cell differentiation"
11	4	92	0.00066	"integrin-mediated signaling pathway"
20	3	40	0.00067	"dendritic cell differentiation"
6.1	6	250	0.00071	"cell chemotaxis"
7.7	5	170	0.00074	"myeloid leukocyte migration"
60	2	10	8e-04	"complement activation, lectin pathway"
7.4	5	170	0.00086	"response to nutrient"
4.4	8	470	0.00087	"adaptive immune response"
5.9	6	260	0.00089	"positive regulation of response to external stimulus"
17	3	45	0.00095	"mast cell activation involved in immune response"
17	3	45	0.00095	"regulation of B cell mediated immunity"
17	3	45	0.00095	"regulation of immunoglobulin mediated immune response"
17	3	45	0.00095	"mast cell degranulation"
