"OddsRatio"	"Count"	"Size"	"Pvalue"	"ModuleE$Term"
23	34	150	2e-31	"muscle cell development"
9.3	55	580	2.9e-30	"muscle structure development"
53	24	59	1.7e-29	"myofibril assembly"
11	46	400	1.1e-28	"muscle system process"
22	30	140	1.6e-27	"striated muscle cell development"
12	41	330	6.3e-27	"muscle contraction"
11	42	360	2e-26	"muscle cell differentiation"
27	25	96	4.9e-25	"cellular component assembly involved in morphogenesis"
13	34	240	3.1e-24	"striated muscle cell differentiation"
9.5	37	350	9e-22	"muscle organ development"
9	34	340	1.6e-19	"striated muscle tissue development"
44	16	43	2.9e-19	"sarcomere organization"
8.6	34	350	5.7e-19	"muscle tissue development"
14	25	160	7.3e-19	"striated muscle contraction"
14	25	160	7.3e-19	"actomyosin structure organization"
46	15	39	2.1e-18	"muscle filament sliding"
46	15	39	2.1e-18	"actin-myosin filament sliding"
5.7	43	660	3.7e-17	"actin filament-based process"
11	23	190	1.9e-15	"cardiac muscle tissue development"
25	15	59	2.6e-15	"cardiac muscle cell development"
23	15	64	9.9e-15	"cardiac cell development"
5.5	37	580	1.2e-14	"actin cytoskeleton organization"
5.5	36	550	1.6e-14	"supramolecular fiber organization"
14	16	100	1.3e-12	"actin-mediated cell contraction"
31	11	37	2.2e-12	"skeletal muscle contraction"
7.4	23	260	2.3e-12	"heart contraction"
7.3	23	260	3e-12	"heart process"
5.2	31	500	4.2e-12	"heart development"
14	15	97	6.3e-12	"cardiac muscle cell differentiation"
8.1	20	200	1.2e-11	"regulation of muscle system process"
11	16	120	1.5e-11	"actin filament-based movement"
64	8	17	3.1e-11	"cardiac myofibril assembly"
3.4	47	1200	3.7e-11	"cytoskeleton organization"
22	11	47	4e-11	"multicellular organismal movement"
22	11	47	4e-11	"musculoskeletal movement"
8.8	17	160	1.3e-10	"skeletal muscle organ development"
10	15	120	1.6e-10	"cardiocyte differentiation"
16	12	68	1.7e-10	"regulation of muscle adaptation"
8.7	16	150	5.2e-10	"skeletal muscle tissue development"
16	11	62	9.6e-10	"cardiac muscle tissue morphogenesis"
13	12	82	1.7e-09	"muscle adaptation"
4.4	27	490	1.8e-09	"regulation of system process"
15	11	66	1.9e-09	"cardiac muscle hypertrophy"
14	11	68	2.7e-09	"striated muscle hypertrophy"
14	11	70	3.7e-09	"muscle hypertrophy"
13	11	73	5.8e-09	"muscle tissue morphogenesis"
2.5	60	2000	8.2e-09	"system process"
180	5	7	1.1e-08	"transition between fast and slow fiber"
61	6	13	1.2e-08	"striated muscle myosin thick filament assembly"
12	11	78	1.2e-08	"muscle organ morphogenesis"
4.9	21	340	1.9e-08	"actin filament organization"
54	6	14	2e-08	"myosin filament assembly"
31	7	23	2.1e-08	"skeletal muscle adaptation"
8.6	13	120	2.2e-08	"cardiac muscle contraction"
7.7	14	150	2.4e-08	"regulation of muscle contraction"
48	6	15	3.4e-08	"myosin filament organization"
Inf	4	4	3.9e-08	"detection of muscle stretch"
4	25	500	3.9e-08	"blood circulation"
15	9	52	4.2e-08	"muscle fiber development"
4	25	500	4.6e-08	"circulatory system process"
18	8	40	7.3e-08	"striated muscle adaptation"
3	35	920	9.4e-08	"circulatory system development"
11	10	75	9.7e-08	"glycogen metabolic process"
11	10	76	1.1e-07	"cellular glucan metabolic process"
11	10	76	1.1e-07	"glucan metabolic process"
5.5	16	230	1.7e-07	"regulation of heart contraction"
2.9	36	990	1.7e-07	"cellular component morphogenesis"
33	6	19	1.7e-07	"response to muscle stretch"
280	4	5	1.9e-07	"voluntary skeletal muscle contraction"
280	4	5	1.9e-07	"twitch skeletal muscle contraction"
280	4	5	1.9e-07	"skeletal muscle thin filament assembly"
8.7	11	100	2.3e-07	"polysaccharide metabolic process"
59	5	11	2.3e-07	"regulation of skeletal muscle contraction"
2.9	35	960	2.5e-07	"anatomical structure formation involved in morphogenesis"
19	7	33	3.2e-07	"sarcoplasmic reticulum calcium ion transport"
9.7	10	85	3.2e-07	"regulation of striated muscle contraction"
9.2	10	89	5e-07	"energy reserve metabolic process"
9.1	10	90	5.6e-07	"cellular polysaccharide metabolic process"
45	5	13	6.3e-07	"regulation of skeletal muscle adaptation"
8.4	10	96	1e-06	"fatty acid oxidation"
8.2	10	98	1.2e-06	"lipid oxidation"
95	4	7	1.3e-06	"skeletal myofibril assembly"
4.6	16	270	1.8e-06	"regulation of blood circulation"
Inf	3	3	2.8e-06	"slow-twitch skeletal muscle fiber contraction"
Inf	3	3	2.8e-06	"sarcomerogenesis"
8.7	9	84	2.8e-06	"regulation of protein complex disassembly"
2.3	46	1600	3.1e-06	"single-organism organelle organization"
3	27	720	3.3e-06	"organelle assembly"
4	17	330	4.6e-06	"regulation of actin filament-based process"
9.3	8	70	6.3e-06	"regulation of protein depolymerization"
3.5	19	430	1.1e-05	"regulation of cytoskeleton organization"
3.7	17	360	1.3e-05	"generation of precursor metabolites and energy"
4.1	15	280	1.3e-05	"regulation of supramolecular fiber organization"
7	9	100	1.4e-05	"myotube differentiation"
4	15	290	1.6e-05	"regulation of actin cytoskeleton organization"
18	5	25	2.3e-05	"regulation of release of sequestered calcium ion into cytosol by sarcoplasmic reticulum"
110	3	5	2.7e-05	"extraocular skeletal muscle development"
110	3	5	2.7e-05	"regulation of skeletal muscle contraction by calcium ion signaling"
2.1	48	1900	2.8e-05	"tissue development"
3.6	16	340	3e-05	"fatty acid metabolic process"
1.9	57	2400	3.2e-05	"anatomical structure morphogenesis"
6.1	9	120	3.7e-05	"monocarboxylic acid catabolic process"
15	5	28	4.1e-05	"regulation of the force of heart contraction"
15	5	28	4.1e-05	"regulation of fatty acid oxidation"
2.9	21	560	4.2e-05	"monocarboxylic acid metabolic process"
6.8	8	92	4.7e-05	"protein depolymerization"
15	5	29	4.9e-05	"release of sequestered calcium ion into cytosol by sarcoplasmic reticulum"
10	6	47	4.9e-05	"glycogen biosynthetic process"
10	6	47	4.9e-05	"glucan biosynthetic process"
8.1	7	69	5.3e-05	"polysaccharide biosynthetic process"
14	5	30	5.8e-05	"calcium ion transport from endoplasmic reticulum to cytosol"
2.4	30	980	5.8e-05	"oxidation-reduction process"
8	7	70	5.8e-05	"regulation of cardiac conduction"
2.4	29	940	7e-05	"carboxylic acid metabolic process"
6.2	8	100	8.6e-05	"regulation of calcium ion import"
3.8	13	260	8.7e-05	"energy derivation by oxidation of organic compounds"
53	3	7	9.3e-05	"pointed-end actin filament capping"
4	12	230	0.00011	"heart morphogenesis"
4.7	10	160	0.00012	"regulation of muscle cell differentiation"
6.9	7	80	0.00014	"regulation of fatty acid metabolic process"
4.6	10	170	0.00014	"positive regulation of supramolecular fiber organization"
42	3	8	0.00015	"regulation of cardiac muscle cell membrane potential"
4.1	11	200	0.00016	"response to mechanical stimulus"
4.9	9	140	0.00018	"single-organism carbohydrate catabolic process"
7.9	6	60	2e-04	"cellular polysaccharide biosynthetic process"
35	3	9	0.00022	"cardiac muscle fiber development"
9.9	5	41	0.00027	"regulation of cardiac muscle hypertrophy"
4.6	9	150	0.00027	"carbohydrate catabolic process"
4.6	9	150	3e-04	"calcium-mediated signaling"
30	3	10	0.00031	"regulation of myoblast proliferation"
9.4	5	43	0.00033	"regulation of muscle hypertrophy"
9.4	5	43	0.00033	"detection of mechanical stimulus"
5.8	7	93	0.00035	"fatty acid catabolic process"
4	10	190	0.00039	"positive regulation of cytoskeleton organization"
26	3	11	0.00042	"creatine metabolic process"
26	3	11	0.00042	"carnitine shuttle"
3.1	14	350	0.00042	"small molecule catabolic process"
4.3	9	160	0.00044	"calcium ion import"
2.1	29	1100	0.00045	"oxoacid metabolic process"
13	4	26	0.00045	"glycogen catabolic process"
3.4	12	270	0.00046	"lipid modification"
6.7	6	70	0.00046	"fatty acid beta-oxidation"
8.7	5	46	0.00046	"cellular carbohydrate catabolic process"
8.5	5	47	0.00051	"ventricular cardiac muscle tissue morphogenesis"
12	4	27	0.00053	"glucan catabolic process"
12	4	27	0.00053	"cellular polysaccharide catabolic process"
3.3	12	270	0.00054	"purine ribonucleoside monophosphate metabolic process"
3.3	12	280	0.00056	"purine nucleoside monophosphate metabolic process"
2.1	29	1100	0.00058	"organic acid metabolic process"
140	2	3	0.00059	"skeletal muscle myosin thick filament assembly"
140	2	3	0.00059	"T-tubule organization"
2.5	19	580	0.00059	"cellular protein complex assembly"
6.3	6	74	0.00062	"cellular carbohydrate biosynthetic process"
7.9	5	50	0.00068	"regulation of actin filament depolymerization"
5.2	7	100	0.00068	"pyruvate metabolic process"
11	4	29	7e-04	"polysaccharide catabolic process"
3	13	320	0.00071	"regulation of metal ion transport"
4.4	8	140	0.00074	"cardiac conduction"
3.2	12	290	0.00079	"ribonucleoside monophosphate metabolic process"
7.6	5	52	0.00082	"ventricular cardiac muscle tissue development"
3.3	11	250	0.00083	"cellular carbohydrate metabolic process"
1.6	66	3200	0.00083	"animal organ development"
7.4	5	53	0.00089	"regulation of myotube differentiation"
7.4	5	53	0.00089	"actin filament depolymerization"
19	3	14	9e-04	"myoblast proliferation"
