"OddsRatio"	"Count"	"Size"	"Pvalue"	"ModuleE$Term"
5.6	94	2000	1.3e-30	"immune response"
5	110	2800	7.4e-30	"immune system process"
6.4	71	1200	2e-28	"leukocyte activation"
5.9	73	1300	9.1e-27	"cell activation"
7.6	47	610	4.8e-23	"myeloid leukocyte activation"
5.1	60	1200	1.9e-20	"immune effector process"
6.6	46	680	2.1e-20	"leukocyte activation involved in immune response"
6.6	46	680	2.4e-20	"cell activation involved in immune response"
7.3	41	540	6.6e-20	"myeloid leukocyte mediated immunity"
4.6	65	1400	1.4e-19	"regulation of immune system process"
7.2	40	530	2.5e-19	"leukocyte degranulation"
4.4	66	1500	9.6e-19	"defense response"
6.9	39	540	2.4e-18	"myeloid cell activation involved in immune response"
5.3	46	820	4e-17	"leukocyte mediated immunity"
5.5	43	740	1.5e-16	"regulated exocytosis"
5.1	46	850	1.9e-16	"exocytosis"
4.1	59	1400	3.6e-16	"secretion by cell"
3.3	170	8400	3.7e-16	"response to stimulus"
6.5	35	500	5e-16	"neutrophil mediated immunity"
4.6	49	1000	1.3e-15	"positive regulation of immune system process"
6.4	34	480	1.5e-15	"neutrophil activation involved in immune response"
6.4	34	480	1.5e-15	"neutrophil degranulation"
6.4	34	490	2e-15	"neutrophil activation"
6.3	34	500	2.7e-15	"granulocyte activation"
3.8	60	1500	5.1e-15	"secretion"
5.1	37	660	8e-14	"lymphocyte activation"
16	16	95	1.1e-13	"positive regulation of T cell proliferation"
11	20	170	1.5e-13	"T cell proliferation"
5.1	36	640	2.1e-13	"cytokine production"
5.2	34	580	3.3e-13	"regulation of cytokine production"
8.1	23	260	4.4e-13	"lymphocyte proliferation"
8	23	260	5.1e-13	"mononuclear cell proliferation"
4.3	41	870	8.8e-13	"innate immune response"
3.2	64	1900	9.5e-13	"vesicle-mediated transport"
4.9	35	650	1.2e-12	"inflammatory response"
7.6	23	270	1.4e-12	"leukocyte proliferation"
4	43	970	2e-12	"regulation of immune response"
11	16	130	1.2e-11	"positive regulation of lymphocyte proliferation"
11	16	130	1.3e-11	"positive regulation of mononuclear cell proliferation"
5.1	30	520	1.4e-11	"regulation of cell activation"
5.2	29	490	1.4e-11	"regulation of leukocyte activation"
2.6	93	3700	1.4e-11	"response to stress"
11	16	130	2.4e-11	"positive regulation of leukocyte proliferation"
5.2	27	450	6.6e-11	"T cell activation"
4.3	33	680	9.4e-11	"regulation of defense response"
8.2	18	190	1.1e-10	"regulation of lymphocyte proliferation"
7.6	19	220	1.1e-10	"positive regulation of leukocyte cell-cell adhesion"
9.7	16	150	1.1e-10	"regulation of T cell proliferation"
8.2	18	200	1.2e-10	"regulation of mononuclear cell proliferation"
2.6	81	3100	1.3e-10	"single-organism transport"
3.9	36	810	1.7e-10	"response to cytokine"
7.8	18	200	2.1e-10	"regulation of leukocyte proliferation"
2.4	120	5300	2.1e-10	"positive regulation of biological process"
5.7	23	350	2.6e-10	"leukocyte cell-cell adhesion"
2.3	140	6900	2.8e-10	"cellular response to stimulus"
4.5	29	560	3.2e-10	"immune response-activating signal transduction"
2.4	90	3700	3.4e-10	"regulation of response to stimulus"
2.8	62	2100	3.5e-10	"response to external stimulus"
7.5	18	210	4.2e-10	"positive regulation of T cell activation"
2.5	82	3200	5.1e-10	"single-organism localization"
5	25	430	5.9e-10	"regulation of lymphocyte activation"
6.6	19	250	9.1e-10	"positive regulation of cell-cell adhesion"
2.3	120	5700	1.1e-09	"signal transduction"
4.3	29	590	1.2e-09	"immune response-regulating signaling pathway"
3.9	33	750	1.2e-09	"positive regulation of immune response"
5.2	23	380	1.5e-09	"negative regulation of immune system process"
5.7	21	320	1.8e-09	"regulation of leukocyte cell-cell adhesion"
3.9	32	720	1.8e-09	"cellular response to cytokine stimulus"
4.1	29	610	2.6e-09	"activation of immune response"
2.5	71	2700	3.2e-09	"cell surface receptor signaling pathway"
5.4	21	340	4.3e-09	"positive regulation of cell activation"
5.6	20	300	4.5e-09	"regulation of T cell activation"
16	10	59	4.8e-09	"positive regulation of tumor necrosis factor superfamily cytokine production"
2.2	120	6200	5.9e-09	"single organism signaling"
2.2	120	6200	6.4e-09	"signaling"
2.2	120	6300	7.7e-09	"cell communication"
4.9	22	380	9.3e-09	"positive regulation of cell adhesion"
4.7	23	420	9.3e-09	"positive regulation of defense response"
4.8	22	390	1.2e-08	"positive regulation of cytokine production"
4.8	22	390	1.2e-08	"regulation of innate immune response"
5.3	20	320	1.2e-08	"regulation of hemopoiesis"
5.9	18	260	1.3e-08	"positive regulation of response to external stimulus"
5.2	20	330	1.5e-08	"positive regulation of leukocyte activation"
5.2	20	330	1.5e-08	"regulation of immune effector process"
2.2	100	4800	1.7e-08	"positive regulation of cellular process"
3.9	27	590	2e-08	"single organismal cell-cell adhesion"
5.4	19	300	2.1e-08	"positive regulation of lymphocyte activation"
3.4	33	840	2.1e-08	"response to other organism"
3.4	33	840	2.1e-08	"response to external biotic stimulus"
7.4	14	160	3.6e-08	"positive regulation of hemopoiesis"
2.9	42	1300	3.8e-08	"cell migration"
6.7	15	190	3.9e-08	"leukocyte chemotaxis"
5.8	17	250	4e-08	"cell chemotaxis"
2.8	43	1300	4.7e-08	"cell adhesion"
15	9	56	4.7e-08	"mast cell activation"
2.5	57	2100	4.8e-08	"positive regulation of response to stimulus"
2.8	43	1400	5.5e-08	"biological adhesion"
15	9	57	5.5e-08	"positive regulation of tumor necrosis factor production"
4.2	23	460	5.9e-08	"leukocyte differentiation"
3.2	33	880	6.3e-08	"response to biotic stimulus"
7.7	13	140	6.7e-08	"negative regulation of leukocyte activation"
4.5	21	390	6.8e-08	"regulation of cell-cell adhesion"
14	9	60	8.8e-08	"positive regulation of cytokine biosynthetic process"
2.1	100	5000	9.1e-08	"transport"
2.3	67	2700	1.2e-07	"cellular response to chemical stimulus"
3.6	27	640	1.2e-07	"single organism cell adhesion"
5.7	16	240	1.3e-07	"regulation of leukocyte differentiation"
3.6	27	640	1.3e-07	"regulation of cell adhesion"
9.2	11	100	1.3e-07	"regulation of tumor necrosis factor superfamily cytokine production"
4.1	22	450	1.7e-07	"leukocyte migration"
3.3	30	780	1.7e-07	"cell-cell adhesion"
5.2	17	280	1.8e-07	"innate immune response-activating signal transduction"
2	120	6100	1.8e-07	"localization"
8.8	11	110	1.9e-07	"cytokine biosynthetic process"
8.8	11	110	1.9e-07	"tumor necrosis factor superfamily cytokine production"
2.6	43	1400	2.1e-07	"cell motility"
2.6	43	1400	2.1e-07	"localization of cell"
4.8	18	320	2.3e-07	"lymphocyte differentiation"
8.7	11	110	2.3e-07	"cytokine metabolic process"
5.1	17	280	2.5e-07	"activation of innate immune response"
6.8	13	160	2.7e-07	"negative regulation of cell activation"
15	8	50	2.8e-07	"lipopolysaccharide-mediated signaling pathway"
2.5	47	1600	3e-07	"locomotion"
2.6	43	1400	3.1e-07	"positive regulation of multicellular organismal process"
3.3	28	720	3.3e-07	"hemopoiesis"
2	100	5100	3.5e-07	"establishment of localization"
9.5	10	92	3.8e-07	"regulation of interferon-gamma production"
4.6	18	330	3.8e-07	"positive regulation of innate immune response"
3.3	27	680	4.1e-07	"regulation of response to external stimulus"
14	8	53	4.4e-07	"regulation of alpha-beta T cell differentiation"
7.2	12	140	4.5e-07	"regulation of lymphocyte differentiation"
6.4	13	170	5.3e-07	"pattern recognition receptor signaling pathway"
2.2	63	2600	5.7e-07	"intracellular signal transduction"
17	7	38	5.8e-07	"regulation of CD4-positive, alpha-beta T cell differentiation"
8.9	10	97	6.2e-07	"regulation of cytokine biosynthetic process"
3.8	22	490	6.3e-07	"small GTPase mediated signal transduction"
7.7	11	120	6.7e-07	"negative regulation of immune response"
7.6	11	120	7.2e-07	"negative regulation of lymphocyte activation"
3.1	29	800	9.1e-07	"immune system development"
8.5	10	100	9.1e-07	"interferon-gamma production"
3.1	28	760	9.6e-07	"hematopoietic or lymphoid organ development"
3.5	23	540	1e-06	"response to bacterium"
2.3	51	1900	1e-06	"cell proliferation"
6.5	12	160	1.1e-06	"regulation of leukocyte mediated immunity"
3.8	21	470	1.2e-06	"adaptive immune response"
2.3	50	1900	1.2e-06	"positive regulation of molecular function"
3.5	23	550	1.2e-06	"chemotaxis"
3.5	23	550	1.3e-06	"taxis"
2.6	39	1300	1.3e-06	"regulation of response to stress"
2.1	68	3000	1.5e-06	"regulation of molecular function"
7.1	11	130	1.5e-06	"positive regulation of leukocyte differentiation"
2.4	43	1500	1.5e-06	"regulation of cell proliferation"
4.4	17	320	1.6e-06	"Ras protein signal transduction"
15	7	44	1.6e-06	"regulation of CD4-positive, alpha-beta T cell activation"
2.6	200	13000	1.7e-06	"single-organism process"
3.4	23	560	1.8e-06	"cytokine-mediated signaling pathway"
2.9	29	830	1.9e-06	"positive regulation of cell proliferation"
2.4	44	1600	2e-06	"positive regulation of catalytic activity"
2.1	58	2400	2.2e-06	"regulation of catalytic activity"
6.1	12	170	2.2e-06	"myeloid leukocyte migration"
11	8	65	2.2e-06	"regulation of phagocytosis"
14	7	46	2.2e-06	"response to fungus"
3.1	26	700	2.3e-06	"endocytosis"
4.5	16	300	2.4e-06	"phagocytosis"
8.8	9	88	2.5e-06	"neutrophil chemotaxis"
13	7	47	2.6e-06	"mast cell mediated immunity"
2.2	55	2200	3e-06	"cellular response to organic substance"
5.8	12	170	3.6e-06	"cytokine secretion"
8.1	9	95	4.7e-06	"neutrophil migration"
5.6	12	180	4.8e-06	"cellular response to biotic stimulus"
8	9	96	5.1e-06	"erythrocyte differentiation"
6.1	11	150	5.4e-06	"regulation of cytokine secretion"
4.2	16	320	5.7e-06	"response to molecule of bacterial origin"
9.3	8	74	5.9e-06	"regulation of alpha-beta T cell activation"
5	13	220	6.3e-06	"T cell differentiation"
24	5	21	6.7e-06	"interleukin-2 biosynthetic process"
7.6	9	100	7.7e-06	"regulation of tumor necrosis factor production"
4.9	13	220	8.5e-06	"negative regulation of cytokine production"
6.5	10	130	9e-06	"toll-like receptor signaling pathway"
6.5	10	130	9e-06	"regulation of adaptive immune response"
7.4	9	100	9.1e-06	"tumor necrosis factor production"
8.7	8	79	9.7e-06	"T cell costimulation"
14	6	38	9.8e-06	"positive regulation of alpha-beta T cell differentiation"
11	7	57	9.8e-06	"interleukin-2 production"
7.3	9	100	9.9e-06	"erythrocyte homeostasis"
3.6	18	410	1.1e-05	"immune response-activating cell surface receptor signaling pathway"
14	6	39	1.1e-05	"regulation of activated T cell proliferation"
3.7	17	380	1.2e-05	"regulation of protein complex assembly"
2.9	24	680	1.2e-05	"transmembrane receptor protein tyrosine kinase signaling pathway"
8.3	8	82	1.3e-05	"lymphocyte costimulation"
2	57	2500	1.3e-05	"regulation of localization"
7	9	110	1.3e-05	"granulocyte chemotaxis"
8.1	8	84	1.5e-05	"positive regulation of lymphocyte differentiation"
19	5	25	1.7e-05	"positive regulation of CD4-positive, alpha-beta T cell differentiation"
2	53	2300	1.8e-05	"regulation of cellular component organization"
9.6	7	63	1.9e-05	"CD4-positive, alpha-beta T cell differentiation"
12	6	43	2e-05	"activated T cell proliferation"
5.8	10	140	2.1e-05	"regulation of cell shape"
6.5	9	120	2.4e-05	"alpha-beta T cell activation"
2.4	33	1200	2.5e-05	"positive regulation of cellular component organization"
1.9	170	11000	2.5e-05	"single-organism cellular process"
4.4	13	250	2.5e-05	"antigen receptor-mediated signaling pathway"
7.5	8	90	2.5e-05	"alpha-beta T cell differentiation"
9.1	7	66	2.6e-05	"positive regulation of interleukin-6 production"
12	6	45	2.7e-05	"mast cell activation involved in immune response"
12	6	45	2.7e-05	"mast cell degranulation"
1.8	170	10000	2.7e-05	"regulation of cellular process"
6.4	9	120	2.7e-05	"regulation of T cell differentiation"
6.4	9	120	2.7e-05	"granulocyte migration"
2.1	46	1900	2.8e-05	"movement of cell or subcellular component"
3.3	18	450	2.9e-05	"immune response-regulating cell surface receptor signaling pathway"
6.3	9	120	2.9e-05	"regulation of adaptive immune response based on somatic recombination of immune receptors built from immunoglobulin superfamily domains"
7.3	8	92	3e-05	"integrin-mediated signaling pathway"
1.9	62	2800	3e-05	"response to organic substance"
8.8	7	68	3.2e-05	"regulation of chemokine production"
4.9	11	180	3.5e-05	"actin polymerization or depolymerization"
3.1	19	500	3.5e-05	"defense response to other organism"
16	5	29	3.6e-05	"positive regulation of CD4-positive, alpha-beta T cell activation"
1.9	67	3200	3.6e-05	"phosphorus metabolic process"
8.5	7	70	3.8e-05	"CD4-positive, alpha-beta T cell activation"
15	5	30	4.2e-05	"positive regulation of interleukin-2 production"
5.9	9	130	4.6e-05	"myeloid cell homeostasis"
1.9	58	2600	4.6e-05	"regulation of multicellular organismal process"
5.3	10	160	4.7e-05	"cellular response to molecule of bacterial origin"
25	4	16	4.8e-05	"regulation of interleukin-6 biosynthetic process"
5.9	9	130	4.9e-05	"positive regulation of chemotaxis"
10	6	50	4.9e-05	"regulation of interleukin-2 production"
10	6	50	4.9e-05	"positive regulation of chemokine production"
10	6	50	4.9e-05	"positive regulation of alpha-beta T cell activation"
8.1	7	73	5e-05	"positive regulation of T cell differentiation"
2.5	28	940	5.5e-05	"positive regulation of hydrolase activity"
1.8	170	11000	5.6e-05	"regulation of biological process"
3.8	14	300	5.6e-05	"response to lipopolysaccharide"
5.1	10	160	5.8e-05	"regulation of actin polymerization or depolymerization"
6.6	8	100	5.9e-05	"positive regulation of cytokine secretion"
7.9	7	75	6e-05	"chemokine production"
5.1	10	160	6.1e-05	"regulation of actin filament length"
10	6	52	6.2e-05	"peptidyl-tyrosine autophosphorylation"
5	10	160	6.7e-05	"positive regulation of immune effector process"
6.5	8	100	6.7e-05	"regulation of interleukin-6 production"
14	5	33	6.8e-05	"regulation of T cell apoptotic process"
4.2	12	230	6.9e-05	"defense response to virus"
6.4	8	100	7.2e-05	"negative regulation of immune effector process"
5.5	9	130	7.4e-05	"positive regulation of NF-kappaB transcription factor activity"
4.2	12	240	7.5e-05	"reactive oxygen species metabolic process"
9.5	6	54	7.7e-05	"regulation of lymphocyte apoptotic process"
3.7	14	310	7.7e-05	"response to virus"
22	4	18	7.9e-05	"interleukin-6 biosynthetic process"
22	4	18	7.9e-05	"regulation of interleukin-2 biosynthetic process"
2.4	28	970	8.7e-05	"cellular response to oxygen-containing compound"
7.3	7	80	9.1e-05	"positive regulation of myeloid cell differentiation"
7.3	7	80	9.1e-05	"regulation of leukocyte apoptotic process"
9.2	6	56	9.4e-05	"interleukin-1 beta production"
4.4	11	210	9.7e-05	"regulation of endocytosis"
1.8	64	3100	9.8e-05	"phosphate-containing compound metabolic process"
5.3	9	140	9.9e-05	"regulation of response to biotic stimulus"
20	4	19	9.9e-05	"tumor necrosis factor biosynthetic process"
20	4	19	9.9e-05	"regulation of tumor necrosis factor biosynthetic process"
6.1	8	110	1e-04	"interleukin-6 production"
12	5	36	0.00011	"MyD88-dependent toll-like receptor signaling pathway"
3.1	17	450	0.00011	"regulation of vesicle-mediated transport"
3.7	13	280	0.00011	"regulation of inflammatory response"
5.9	8	110	0.00012	"positive regulation of endocytosis"
45	3	8	0.00012	"respiratory burst involved in defense response"
45	3	8	0.00012	"positive regulation of interleukin-6 biosynthetic process"
1.8	180	12000	0.00013	"biological regulation"
3.3	15	370	0.00013	"regulation of sequence-specific DNA binding transcription factor activity"
12	5	38	0.00014	"regulation of myeloid leukocyte mediated immunity"
12	5	38	0.00014	"regulation of mast cell activation"
12	5	38	0.00014	"regulation of erythrocyte differentiation"
6.8	7	86	0.00014	"positive regulation of leukocyte chemotaxis"
5.7	8	120	0.00015	"positive regulation of leukocyte migration"
3.4	14	330	0.00015	"myeloid cell differentiation"
8.2	6	62	0.00017	"lysosome localization"
2	43	1900	0.00017	"protein phosphorylation"
2	39	1600	0.00017	"regulation of phosphate metabolic process"
2.6	21	660	0.00017	"positive regulation of GTPase activity"
5.6	8	120	0.00018	"regulation of lymphocyte mediated immunity"
11	5	40	0.00018	"dendritic cell differentiation"
17	4	22	0.00018	"podosome assembly"
3.2	15	380	0.00018	"regulation of multi-organism process"
8	6	63	0.00018	"positive regulation of interferon-gamma production"
4.9	9	150	0.00019	"cellular response to lipopolysaccharide"
2.5	22	710	2e-04	"regulation of GTPase activity"
2.3	26	920	2e-04	"positive regulation of transport"
2	39	1600	2e-04	"regulation of phosphorus metabolic process"
2.6	21	660	0.00021	"actin filament-based process"
1.7	69	3500	0.00021	"regulation of biological quality"
16	4	23	0.00022	"positive regulation of erythrocyte differentiation"
6.3	7	92	0.00022	"T cell activation involved in immune response"
10	5	42	0.00022	"regulation of interleukin-10 production"
4.7	9	160	0.00023	"receptor metabolic process"
1.8	57	2700	0.00023	"regulation of signal transduction"
4.7	9	160	0.00024	"lymphocyte activation involved in immune response"
4.7	9	160	0.00024	"actin filament polymerization"
3.9	11	230	0.00024	"homeostasis of number of cells"
32	3	10	0.00026	"negative regulation of activated T cell proliferation"
4.6	9	160	0.00026	"regulation of leukocyte migration"
2.7	19	580	0.00026	"actin cytoskeleton organization"
9.7	5	44	0.00028	"negative regulation of leukocyte mediated immunity"
9.7	5	44	0.00028	"interleukin-10 production"
7.4	6	68	0.00028	"interleukin-1 production"
2.8	17	490	0.00029	"protein secretion"
1.7	78	4100	0.00029	"response to chemical"
2	34	1400	0.00029	"negative regulation of response to stimulus"
7.3	6	69	3e-04	"lymphocyte apoptotic process"
2	36	1500	3e-04	"response to oxygen-containing compound"
9.5	5	45	0.00031	"positive regulation of phagocytosis"
1.8	48	2200	0.00032	"phosphorylation"
5.8	7	99	0.00034	"leukocyte apoptotic process"
2.4	22	740	0.00035	"regulation of protein kinase activity"
28	3	11	0.00035	"positive regulation of tumor necrosis factor biosynthetic process"
2.4	23	790	0.00035	"regulation of locomotion"
5.8	7	100	0.00037	"positive regulation of inflammatory response"
3.7	11	240	0.00038	"protein polymerization"
3.3	13	320	0.00039	"regulation of cellular component size"
3.1	14	370	4e-04	"peptidyl-tyrosine phosphorylation"
13	4	27	0.00041	"positive regulation of acute inflammatory response"
13	4	27	0.00041	"alpha-beta T cell proliferation"
8.8	5	48	0.00042	"T cell apoptotic process"
3.1	14	370	0.00042	"peptidyl-tyrosine modification"
5.6	7	100	0.00044	"regulation of leukocyte chemotaxis"
2	36	1500	0.00046	"positive regulation of protein metabolic process"
25	3	12	0.00046	"negative regulation of mast cell activation"
25	3	12	0.00046	"positive regulation of interleukin-2 biosynthetic process"
25	3	12	0.00046	"cellular response to ethanol"
13	4	28	0.00048	"respiratory burst"
13	4	28	0.00048	"regulation of defense response to virus by virus"
4.2	9	170	0.00048	"regulation of chemotaxis"
4.2	9	170	0.00051	"T cell receptor signaling pathway"
150	2	3	0.00052	"response to molecule of fungal origin"
150	2	3	0.00052	"positive regulation of gamma-delta T cell differentiation"
150	2	3	0.00052	"cellular response to molecule of fungal origin"
3.5	11	250	0.00054	"stress-activated MAPK cascade"
12	4	29	0.00055	"myeloid dendritic cell activation"
4.6	8	140	0.00056	"positive regulation of stress-activated MAPK cascade"
2.6	17	520	0.00058	"peptide secretion"
4.6	8	140	0.00058	"positive regulation of stress-activated protein kinase signaling cascade"
23	3	13	0.00059	"immunological synapse formation"
23	3	13	0.00059	"negative regulation of leukocyte mediated cytotoxicity"
23	3	13	0.00059	"positive regulation of B cell differentiation"
23	3	13	0.00059	"monocyte chemotactic protein-1 production"
23	3	13	0.00059	"regulation of monocyte chemotactic protein-1 production"
8.1	5	52	0.00061	"CD4-positive, alpha-beta T cell differentiation involved in immune response"
4.6	8	140	0.00061	"regulation of actin filament polymerization"
12	4	30	0.00063	"positive regulation of interleukin-1 beta production"
12	4	30	0.00063	"toll-like receptor 4 signaling pathway"
12	4	30	0.00063	"dendritic cell migration"
12	4	30	0.00063	"regulation of T-helper cell differentiation"
3.5	11	260	0.00065	"stress-activated protein kinase signaling cascade"
2.7	16	480	0.00065	"positive regulation of protein kinase activity"
2.4	20	670	0.00066	"regulation of cell migration"
7.9	5	53	0.00067	"alpha-beta T cell activation involved in immune response"
7.9	5	53	0.00067	"alpha-beta T cell differentiation involved in immune response"
3.4	11	260	0.00067	"B cell activation"
2.3	21	730	0.00067	"regulation of cell motility"
3.1	13	340	0.00068	"actin filament organization"
2.5	19	630	0.00069	"regulation of secretion by cell"
1.8	40	1800	0.00069	"regulation of transport"
11	4	31	0.00071	"negative regulation of interferon-gamma production"
2.1	27	1000	0.00071	"positive regulation of phosphorus metabolic process"
2.1	27	1000	0.00071	"positive regulation of phosphate metabolic process"
21	3	14	0.00075	"G-protein coupled purinergic nucleotide receptor signaling pathway"
21	3	14	0.00075	"regulation of podosome assembly"
1.8	40	1800	0.00076	"apoptotic process"
2.8	15	440	0.00076	"positive regulation of locomotion"
3.4	11	260	0.00079	"I-kappaB kinase/NF-kappaB signaling"
11	4	32	8e-04	"interleukin-4 production"
5.9	6	83	0.00081	"receptor internalization"
2.9	14	400	0.00082	"positive regulation of cell migration"
7.4	5	56	0.00086	"positive regulation of macroautophagy"
3.6	10	230	0.00088	"positive regulation of protein complex assembly"
2.2	22	800	9e-04	"regulation of kinase activity"
2	31	1300	0.00092	"regulation of protein phosphorylation"
19	3	15	0.00093	"response to muramyl dipeptide"
19	3	15	0.00093	"granulocyte macrophage colony-stimulating factor production"
19	3	15	0.00093	"regulation of granulocyte macrophage colony-stimulating factor production"
5.7	6	86	0.00098	"antimicrobial humoral response"
2.2	22	800	0.00099	"regulation of cellular component biogenesis"
